{
  "name": "planning_trips",
  "method": "GET",
  "url": "http://localhost:25580/api/planningdata/trips?limit=5",
  "ok": true,
  "status": 200,
  "fetched_at": "2026-03-28T14:08:16Z",
  "request_body": null,
  "response_headers": {
    "Server": "Werkzeug/3.1.7 Python/3.14.3",
    "Date": "Sat, 28 Mar 2026 14:08:16 GMT",
    "Content-Type": "application/json",
    "Content-Length": "1934",
    "Content-Security-Policy": "default-src 'self'; img-src 'self' data:; style-src 'self' 'unsafe-inline';",
    "X-Content-Type-Options": "nosniff",
    "X-Frame-Options": "DENY",
    "X-XSS-Protection": "1; mode=block",
    "Strict-Transport-Security": "max-age=31536000; includeSubDomains",
    "Cache-Control": "no-store, no-cache, must-revalidate, max-age=0",
    "Pragma": "no-cache",
    "Referrer-Policy": "strict-origin-when-cross-origin",
    "Access-Control-Allow-Origin": "*",
    "Connection": "close"
  },
  "is_json": true,
  "body": {
    "ok": true,
    "metadata": {
      "api_name": "NMBS Train Data API",
      "version": "1.0.0",
      "endpoint": "/api/planningdata/trips",
      "data_type": "trips",
      "generated_at": "2026-03-28T14:07:18.772662",
      "record_count": 5,
      "total_records": 51761,
      "page": 0,
      "page_size": 5,
      "total_pages": 10353
    },
    "data": [
      {
        "route_id": 1,
        "service_id": 1,
        "trip_id": "88____:046::8822004:8822426:2:1644:20260216",
        "trip_headsign": "Muizen",
        "trip_short_name": 1,
        "direction_id": null,
        "block_id": 1,
        "shape_id": null,
        "trip_type": 1
      },
      {
        "route_id": 2,
        "service_id": 2,
        "trip_id": "88____:007::8882362:8883006:8:603:20260821",
        "trip_headsign": "Braine-le-Comte",
        "trip_short_name": 10300,
        "direction_id": null,
        "block_id": 2,
        "shape_id": null,
        "trip_type": 1
      },
      {
        "route_id": 2,
        "service_id": 2,
        "trip_id": "88____:007::8882362:8883006:8:703:20260821",
        "trip_headsign": "Braine-le-Comte",
        "trip_short_name": 10301,
        "direction_id": null,
        "block_id": 3,
        "shape_id": null,
        "trip_type": 1
      },
      {
        "route_id": 2,
        "service_id": 2,
        "trip_id": "88____:007::8882362:8883006:8:803:20260821",
        "trip_headsign": "Braine-le-Comte",
        "trip_short_name": 10302,
        "direction_id": null,
        "block_id": 4,
        "shape_id": null,
        "trip_type": 1
      },
      {
        "route_id": 2,
        "service_id": 2,
        "trip_id": "88____:007::8882362:8883006:8:903:20260821",
        "trip_headsign": "Braine-le-Comte",
        "trip_short_name": 10303,
        "direction_id": null,
        "block_id": 5,
        "shape_id": null,
        "trip_type": 1
      }
    ],
    "pagination": {
      "page": 0,
      "pageSize": 5,
      "totalRecords": 51761,
      "totalPages": 10353,
      "hasNextPage": true,
      "hasPrevPage": false
    }
  }
}